// This file is generated automatically. All manually added changes will be removed when running the Converter.
// Map 018-2: Heroes' Hold - Outside warps
018-2,63,106,0	warp	#018-2_63_106	0,0,017-1,180,194
018-2,72,63,0	warp	#018-2_72_63	3,0,018-2-1,26,32
