// This file is generated automatically. All manually added changes will be removed when running the Converter.
// Map 018-1: Sincerity mobs
018-1,69,65,6,6	monster	Evil Mushroom	1042,4,30000,40000
018-1,32,33,6,6	monster	Squirrel	1032,3,30000,60000
018-1,46,48,2,0	monster	Clover Patch	1028,1,10000,120000
018-1,37,60,11,10	monster	Poison Spiky Mushroom	1043,5,10000,30000
018-1,54,36,8,9	monster	Bat	1039,4,25000,30000
018-1,59,51,6,4	monster	Log Head	1066,2,22000,30000
