// This file is generated automatically. All manually added changes will be removed when running the Converter.
// Map 025-3: The Impregnable Fortress (Outside) mobs
025-3,99,157,75,17	monster	Moubi	1038,16,120000,30000
025-3,105,117,10,21	monster	Angry Bat	1194,24,500,500,Impregnable#0F::OnMoubiKill
025-3,98,141,71,16	monster	Bloody Mouboo	1119,6,500,500
025-3,99,117,75,18	monster	Crafty	1018,1,500,500,Impregnable#0F::OnMoubiKill
