// This file is generated automatically. All manually added changes will be removed when running the Converter.
// Map 025-2-3: Pinkie Cave mobs
025-2-3,55,39,13,14	monster	Pinkie	1132,18,4000,8000
025-2-3,54,41,15,12	monster	Pinkie Suseran	1419,11,4000,8000
025-2-3,56,41,17,10	monster	Pinkie Maximus	1249,10,20000,2500
025-2-3,48,40,26,6	monster	Cave Maggot	1027,9,2000,20000
