// This file is generated automatically. All manually added changes will be removed when running the Converter.
// Map 024-16: Frostia's Throne Room warps
024-16,30,54,0	warp	#024-16_30_54	2,0,024-1,98,22
