// This file is generated automatically. All manually added changes will be removed when running the Converter.
// Map 003-0: Magic Academy mobs
003-0,45,32,24,2	monster	Piou	1002,3,60000,30000
003-0,45,30,24,1	monster	Croc	1006,3,60000,30000
